{
  "vulnerabilities": [
    {
      "CVSSv3": "CVSS:3.0/AV:N/AC:H/PR:N/UI:N/S:U/C:N/I:N/A:L",
      "alternativeIds": [],
      "creationTime": "2019-02-13T16:48:49.355980Z",
      "credit": [
        "Kakol"
      ],
      "cvssScore": 3.7,
      "description": "## Overview\n \n[ircdkit](https://github.com/ChiperSoft/ircdkit#readme) is a toolkit for constructing special purpose IRC servers. It is not a full implementation of the various IRC RFC specifications, but rather a pluggable framework for implementing your own IRC compatible servers, such as ZNC style bouncers or proxies to non-IRC chat services.\n\n\nAffected versions of this package are vulnerable to Denial of Service (DoS).\n\n## Details\nDenial of Service (DoS) describes a family of attacks, all aimed at making a system inaccessible to its intended and legitimate users.\r\n\r\nUnlike other vulnerabilities, DoS attacks usually do not aim at breaching security. Rather, they are focused on making websites and services unavailable to genuine users resultingin downtime.\r\n\r\nOne popular Denial of Service vulnerability is DDoS (a Distributed Denial of Service), an attack that attempts to clog network pipes to the system by generating a large volume of traffic from many machines.\r\n\r\nWhen it comes to open source libraries, DoS vulnerabilities allow attackers to trigger such a crash or crippling of the service by using a flaw either in the application code or from the use of open source libraries.\r\n\r\nTwo common types of DoS vulnerabilities:\r\n\r\n* High CPU/Memory Consumption- An attacker sending crafted requests that could cause the system to take a disproportionate amount of time to process. For example, [commons-fileupload:commons-fileupload](SNYK-JAVA-COMMONSFILEUPLOAD-30082).\r\n\r\n* Crash - An attacker sending crafted requests that could cause the system to crash. For Example,  [npm `ws` package](npm:ws:20171108)\n\n## Remediation\n\nUpgrade `ircdkit` to version 1.0.4 or higher.\n\n\n## References\n\n- [GitHub Issue](https://github.com/Twipped/ircdkit/issues/1)\n\n- [NPM Security Advisory](https://www.npmjs.com/advisories/735)\n",
      "disclosureTime": "2018-11-08T16:46:07Z",
      "exploit": "Not Defined",
      "fixedIn": [
        "1.0.4"
      ],
      "functions": [],
      "functions_new": [],
      "id": "SNYK-JS-IRCDKIT-173688",
      "identifiers": {
        "CVE": [],
        "CWE": [
          "CWE-400"
        ],
        "GHSA": [
          "GHSA-f7r3-p866-q9qr"
        ],
        "NSP": [
          735
        ]
      },
      "language": "js",
      "modificationTime": "2019-06-02T07:36:29.459973Z",
      "moduleName": "ircdkit",
      "packageManager": "npm",
      "packageName": "ircdkit",
      "patches": [],
      "publicationTime": "2019-02-13T16:46:06Z",
      "references": [
        {
          "title": "GitHub Issue",
          "url": "https://github.com/Twipped/ircdkit/issues/1"
        },
        {
          "title": "NPM Security Advisory",
          "url": "https://www.npmjs.com/advisories/735"
        }
      ],
      "semver": {
        "vulnerable": [
          "<1.0.4"
        ]
      },
      "severity": "low",
      "title": "Denial of Service (DoS)",
      "from": [
        "npm-fixture@1.0.0",
        "ircdkit@1.0.3"
      ],
      "upgradePath": [
        false,
        "ircdkit@1.0.4"
      ],
      "isUpgradable": true,
      "isPatchable": false,
      "name": "ircdkit",
      "version": "1.0.3"
    },
    {
      "CVSSv3": "CVSS:3.0/AV:N/AC:H/PR:N/UI:N/S:U/C:N/I:N/A:L",
      "alternativeIds": [],
      "creationTime": "2019-02-13T16:48:49.355980Z",
      "credit": [
        "Kakol"
      ],
      "cvssScore": 3.7,
      "description": "## Overview\n \n[ircdkit](https://github.com/ChiperSoft/ircdkit#readme) is a toolkit for constructing special purpose IRC servers. It is not a full implementation of the various IRC RFC specifications, but rather a pluggable framework for implementing your own IRC compatible servers, such as ZNC style bouncers or proxies to non-IRC chat services.\n\n\nAffected versions of this package are vulnerable to Denial of Service (DoS).\n\n## Details\nDenial of Service (DoS) describes a family of attacks, all aimed at making a system inaccessible to its intended and legitimate users.\r\n\r\nUnlike other vulnerabilities, DoS attacks usually do not aim at breaching security. Rather, they are focused on making websites and services unavailable to genuine users resultingin downtime.\r\n\r\nOne popular Denial of Service vulnerability is DDoS (a Distributed Denial of Service), an attack that attempts to clog network pipes to the system by generating a large volume of traffic from many machines.\r\n\r\nWhen it comes to open source libraries, DoS vulnerabilities allow attackers to trigger such a crash or crippling of the service by using a flaw either in the application code or from the use of open source libraries.\r\n\r\nTwo common types of DoS vulnerabilities:\r\n\r\n* High CPU/Memory Consumption- An attacker sending crafted requests that could cause the system to take a disproportionate amount of time to process. For example, [commons-fileupload:commons-fileupload](SNYK-JAVA-COMMONSFILEUPLOAD-30082).\r\n\r\n* Crash - An attacker sending crafted requests that could cause the system to crash. For Example,  [npm `ws` package](npm:ws:20171108)\n\n## Remediation\n\nUpgrade `ircdkit` to version 1.0.4 or higher.\n\n\n## References\n\n- [GitHub Issue](https://github.com/Twipped/ircdkit/issues/1)\n\n- [NPM Security Advisory](https://www.npmjs.com/advisories/735)\n",
      "disclosureTime": "2018-11-08T16:46:07Z",
      "exploit": "Not Defined",
      "fixedIn": [
        "1.0.4"
      ],
      "functions": [],
      "functions_new": [],
      "id": "SNYK-JS-IRCDKIT-173688",
      "identifiers": {
        "CVE": [],
        "CWE": [
          "CWE-400"
        ],
        "GHSA": [
          "GHSA-f7r3-p866-q9qr"
        ],
        "NSP": [
          735
        ]
      },
      "language": "js",
      "modificationTime": "2019-06-02T07:36:29.459973Z",
      "moduleName": "ircdkit",
      "packageManager": "npm",
      "packageName": "ircdkit",
      "patches": [],
      "publicationTime": "2019-02-13T16:46:06Z",
      "references": [
        {
          "title": "GitHub Issue",
          "url": "https://github.com/Twipped/ircdkit/issues/1"
        },
        {
          "title": "NPM Security Advisory",
          "url": "https://www.npmjs.com/advisories/735"
        }
      ],
      "semver": {
        "vulnerable": [
          "<1.0.4"
        ]
      },
      "severity": "low",
      "title": "Denial of Service (DoS)",
      "from": [
        "npm-fixture@1.0.0",
        "ircdkit@1.0.3"
      ],
      "upgradePath": [
        false,
        "ircdkit@1.0.4"
      ],
      "isUpgradable": true,
      "isPatchable": false,
      "name": "ircdkit",
      "version": "1.0.3"
    }
  ],
  "ok": false,
  "dependencyCount": 7,
  "org": "Snyk",
  "policy": "# Snyk (https://snyk.io) policy file, patches or ignores known vulnerabilities.\nversion: v1.14.1\nignore: {}\npatch: {}\n",
  "isPrivate": true,
  "licensesPolicy": {
    "severities": {},
    "orgLicenseRules": {}
  },
  "packageManager": "npm",
  "ignoreSettings": null,
  "summary": "2 vulnerable dependency path",
  "remediation": {
    "unresolved": [],
    "upgrade": {
      "ircdkit@1.0.3": {
        "upgradeTo": "ircdkit@1.0.4",
        "upgrades": [
          "ircdkit@1.0.3"
        ],
        "vulns": [
          "SNYK-JS-IRCDKIT-173688"
        ]
      }
    },
    "patch": {},
    "ignore": {},
    "pin": {}
  },
  "filesystemPolicy": true,
  "filtered": {
    "ignore": [],
    "patch": []
  },
  "uniqueCount": 2,
  "path": "/path/to/file/npm"
}
